%YAML 1.1
%TAG !u! tag:unity3d.com,2011:
--- !u!1001 &100100000
Prefab:
  m_ObjectHideFlags: 1
  serializedVersion: 2
  m_Modification:
    m_TransformParent: {fileID: 0}
    m_Modifications: []
    m_RemovedComponents: []
  m_ParentPrefab: {fileID: 0}
  m_RootGameObject: {fileID: 1918268739225350}
  m_IsPrefabParent: 1
--- !u!1 &1918268739225350
GameObject:
  m_ObjectHideFlags: 0
  m_PrefabParentObject: {fileID: 0}
  m_PrefabInternal: {fileID: 100100000}
  serializedVersion: 5
  m_Component:
  - component: {fileID: 4948362693215746}
  - component: {fileID: 114765654995151444}
  m_Layer: 0
  m_Name: DeltaForceEscapeChallenge
  m_TagString: Untagged
  m_Icon: {fileID: 0}
  m_NavMeshLayer: 0
  m_StaticEditorFlags: 0
  m_IsActive: 1
--- !u!4 &4948362693215746
Transform:
  m_ObjectHideFlags: 1
  m_PrefabParentObject: {fileID: 0}
  m_PrefabInternal: {fileID: 100100000}
  m_GameObject: {fileID: 1918268739225350}
  m_LocalRotation: {x: 0, y: 0, z: 0, w: 1}
  m_LocalPosition: {x: 406.82993, y: -2.0882053, z: 37.603546}
  m_LocalScale: {x: 1, y: 1, z: 1}
  m_Children: []
  m_Father: {fileID: 0}
  m_RootOrder: 0
  m_LocalEulerAnglesHint: {x: 0, y: 0, z: 0}
--- !u!114 &114765654995151444
MonoBehaviour:
  m_ObjectHideFlags: 1
  m_PrefabParentObject: {fileID: 0}
  m_PrefabInternal: {fileID: 100100000}
  m_GameObject: {fileID: 1918268739225350}
  m_Enabled: 1
  m_EditorHideFlags: 0
  m_Script: {fileID: 11500000, guid: e0dec9300fb0e2143ad867d267a47b7d, type: 3}
  m_Name: 
  m_EditorClassIdentifier: 
  _preObjectiveDescription: 'Complete the delta force escape  '
  _postObjectiveDescription: ' x in 1 game.'
  _achievementDictionaryKey: DeltaForceEscapes
  _isObjectiveFloat: 0
  _name: Escape
  _currencyReward: 1000
  IsComplete: 0
  _objectivesNeeded: 1
  _difficultyMultiplier: 0.2
