%YAML 1.1
%TAG !u! tag:unity3d.com,2011:
--- !u!1001 &100100000
Prefab:
  m_ObjectHideFlags: 1
  serializedVersion: 2
  m_Modification:
    m_TransformParent: {fileID: 0}
    m_Modifications: []
    m_RemovedComponents: []
  m_ParentPrefab: {fileID: 0}
  m_RootGameObject: {fileID: 1558484830488932}
  m_IsPrefabParent: 1
--- !u!1 &1558484830488932
GameObject:
  m_ObjectHideFlags: 0
  m_PrefabParentObject: {fileID: 0}
  m_PrefabInternal: {fileID: 100100000}
  serializedVersion: 5
  m_Component:
  - component: {fileID: 4845680184978126}
  - component: {fileID: 114296699472083358}
  m_Layer: 0
  m_Name: InvincibilityPickupUpgrade
  m_TagString: Untagged
  m_Icon: {fileID: 0}
  m_NavMeshLayer: 0
  m_StaticEditorFlags: 0
  m_IsActive: 1
--- !u!4 &4845680184978126
Transform:
  m_ObjectHideFlags: 1
  m_PrefabParentObject: {fileID: 0}
  m_PrefabInternal: {fileID: 100100000}
  m_GameObject: {fileID: 1558484830488932}
  m_LocalRotation: {x: 0, y: 0, z: 0, w: 1}
  m_LocalPosition: {x: 95.542915, y: 1.8539541, z: 16.710403}
  m_LocalScale: {x: 1, y: 1, z: 1}
  m_Children: []
  m_Father: {fileID: 0}
  m_RootOrder: 0
  m_LocalEulerAnglesHint: {x: 0, y: 0, z: 0}
--- !u!114 &114296699472083358
MonoBehaviour:
  m_ObjectHideFlags: 1
  m_PrefabParentObject: {fileID: 0}
  m_PrefabInternal: {fileID: 100100000}
  m_GameObject: {fileID: 1558484830488932}
  m_Enabled: 1
  m_EditorHideFlags: 0
  m_Script: {fileID: 11500000, guid: 913fd9100c5a6d1429fb096ed6d2a968, type: 3}
  m_Name: 
  m_EditorClassIdentifier: 
  _name: Shield Pickup
  _description: Increases the duration of the invincibility pickups.
  _researchDescription: A tougher shield generator that allows for a longer shield.
  _tierName: InvincibilityPickupUpgradeTier
  _isEnvironmentUpgrade: 1
  _costTable: dc050000b80b000088130000
  _upgradeTable:
  - 4
  - 6
  - 8
  - 10
